<svg width="32" height="32" viewBox="0 0 32 32" fill="none" xmlns="http://www.w3.org/2000/svg">
<path d="M29.8688 12.5248H2.1312C1.79172 12.5248 1.46615 12.39 1.2261 12.1499C0.986053 11.9099 0.851196 11.5843 0.851196 11.2448C0.851196 10.9054 0.986053 10.5798 1.2261 10.3397C1.46615 10.0997 1.79172 9.96484 2.1312 9.96484H29.8688C30.2083 9.96484 30.5338 10.0997 30.7739 10.3397C31.0139 10.5798 31.1488 10.9054 31.1488 11.2448C31.1488 11.5843 31.0139 11.9099 30.7739 12.1499C30.5338 12.39 30.2083 12.5248 29.8688 12.5248Z" fill="#171321"/>
<path d="M27.3088 32H4.6912C3.67277 32 2.69605 31.5954 1.97591 30.8753C1.25577 30.1552 0.851196 29.1784 0.851196 28.16V15.1296C0.851196 14.7901 0.986053 14.4646 1.2261 14.2245C1.46615 13.9845 1.79172 13.8496 2.1312 13.8496C2.47067 13.8496 2.79625 13.9845 3.03629 14.2245C3.27634 14.4646 3.4112 14.7901 3.4112 15.1296V28.16C3.4112 28.4995 3.54605 28.8251 3.7861 29.0651C4.02615 29.3051 4.35172 29.44 4.6912 29.44H27.3088C27.6483 29.44 27.9738 29.3051 28.2139 29.0651C28.4539 28.8251 28.5888 28.4995 28.5888 28.16V15.1296C28.5888 14.7901 28.7237 14.4646 28.9637 14.2245C29.2037 13.9845 29.5293 13.8496 29.8688 13.8496C30.2083 13.8496 30.5338 13.9845 30.7739 14.2245C31.0139 14.4646 31.1488 14.7901 31.1488 15.1296V28.16C31.1488 29.1784 30.7442 30.1552 30.0241 30.8753C29.3039 31.5954 28.3272 32 27.3088 32Z" fill="#171321"/>
<path d="M2.1312 12.5248C1.79172 12.5248 1.46615 12.3899 1.2261 12.1499C0.986053 11.9098 0.851196 11.5843 0.851196 11.2448V6.12479C0.851196 5.10636 1.25577 4.12964 1.97591 3.4095C2.69605 2.68936 3.67277 2.28479 4.6912 2.28479H23.5264C23.8659 2.28479 24.1914 2.41965 24.4315 2.65969C24.6715 2.89974 24.8064 3.22531 24.8064 3.56479C24.8064 3.90427 24.6715 4.22984 24.4315 4.46989C24.1914 4.70993 23.8659 4.84479 23.5264 4.84479H4.6912C4.35172 4.84479 4.02615 4.97965 3.7861 5.21969C3.54605 5.45974 3.4112 5.78531 3.4112 6.12479V11.2448C3.4112 11.5843 3.27634 11.9098 3.03629 12.1499C2.79625 12.3899 2.47067 12.5248 2.1312 12.5248Z" fill="#171321"/>
<path d="M29.8687 12.5248C29.5293 12.5248 29.2037 12.3899 28.9636 12.1499C28.7236 11.9098 28.5887 11.5843 28.5887 11.2448V6.12479C28.5887 5.78531 28.4539 5.45974 28.2138 5.21969C27.9738 4.97965 27.6482 4.84479 27.3087 4.84479H23.5263C23.1869 4.84479 22.8613 4.70993 22.6212 4.46989C22.3812 4.22984 22.2463 3.90427 22.2463 3.56479C22.2463 3.22531 22.3812 2.89974 22.6212 2.65969C22.8613 2.41965 23.1869 2.28479 23.5263 2.28479H27.3087C28.3272 2.28479 29.3039 2.68936 30.024 3.4095C30.7442 4.12964 31.1487 5.10636 31.1487 6.12479V11.2448C31.1487 11.5843 31.0139 11.9098 30.7738 12.1499C30.5338 12.3899 30.2082 12.5248 29.8687 12.5248Z" fill="#171321"/>
<path d="M8.4736 7.0848C8.13413 7.0848 7.80855 6.94994 7.56851 6.7099C7.32846 6.46985 7.1936 6.14428 7.1936 5.8048V1.28C7.1936 0.940523 7.32846 0.61495 7.56851 0.374903C7.80855 0.134857 8.13413 0 8.4736 0C8.81308 0 9.13865 0.134857 9.3787 0.374903C9.61875 0.61495 9.7536 0.940523 9.7536 1.28V5.8048C9.7536 6.14428 9.61875 6.46985 9.3787 6.7099C9.13865 6.94994 8.81308 7.0848 8.4736 7.0848Z" fill="#171321"/>
<path d="M23.5263 7.0848C23.1869 7.0848 22.8613 6.94994 22.6212 6.7099C22.3812 6.46985 22.2463 6.14428 22.2463 5.8048V1.28C22.2463 0.940523 22.3812 0.61495 22.6212 0.374903C22.8613 0.134857 23.1869 0 23.5263 0C23.8658 0 24.1914 0.134857 24.4314 0.374903C24.6715 0.61495 24.8063 0.940523 24.8063 1.28V5.8048C24.8063 6.14428 24.6715 6.46985 24.4314 6.7099C24.1914 6.94994 23.8658 7.0848 23.5263 7.0848Z" fill="#171321"/>
<path d="M17.376 19.4048H14.624C14.2845 19.4048 13.9589 19.27 13.7189 19.0299C13.4789 18.7899 13.344 18.4643 13.344 18.1248C13.344 17.7854 13.4789 17.4598 13.7189 17.2198C13.9589 16.9797 14.2845 16.8448 14.624 16.8448H17.376C17.7155 16.8448 18.041 16.9797 18.2811 17.2198C18.5211 17.4598 18.656 17.7854 18.656 18.1248C18.656 18.4643 18.5211 18.7899 18.2811 19.0299C18.041 19.27 17.7155 19.4048 17.376 19.4048Z" fill="#171321"/>
<path d="M17.376 25.1136H14.624C14.2845 25.1136 13.9589 24.9787 13.7189 24.7387C13.4789 24.4986 13.344 24.1731 13.344 23.8336C13.344 23.4941 13.4789 23.1685 13.7189 22.9285C13.9589 22.6884 14.2845 22.5536 14.624 22.5536H17.376C17.7155 22.5536 18.041 22.6884 18.2811 22.9285C18.5211 23.1685 18.656 23.4941 18.656 23.8336C18.656 24.1731 18.5211 24.4986 18.2811 24.7387C18.041 24.9787 17.7155 25.1136 17.376 25.1136Z" fill="#171321"/>
<path d="M23.9808 19.4048H21.2352C20.8957 19.4048 20.5701 19.27 20.3301 19.0299C20.0901 18.7899 19.9552 18.4643 19.9552 18.1248C19.9552 17.7854 20.0901 17.4598 20.3301 17.2198C20.5701 16.9797 20.8957 16.8448 21.2352 16.8448H23.9808C24.3203 16.8448 24.6458 16.9797 24.8859 17.2198C25.1259 17.4598 25.2608 17.7854 25.2608 18.1248C25.2608 18.4643 25.1259 18.7899 24.8859 19.0299C24.6458 19.27 24.3203 19.4048 23.9808 19.4048Z" fill="#171321"/>
<path d="M10.7647 25.1136H8.01914C7.67966 25.1136 7.35409 24.9787 7.11404 24.7387C6.87399 24.4986 6.73914 24.1731 6.73914 23.8336C6.73914 23.4941 6.87399 23.1685 7.11404 22.9285C7.35409 22.6884 7.67966 22.5536 8.01914 22.5536H10.7647C11.1042 22.5536 11.4298 22.6884 11.6698 22.9285C11.9099 23.1685 12.0447 23.4941 12.0447 23.8336C12.0447 24.1731 11.9099 24.4986 11.6698 24.7387C11.4298 24.9787 11.1042 25.1136 10.7647 25.1136Z" fill="#171321"/>
</svg>
