<svg width="32" height="32" viewBox="0 0 32 32" fill="none" xmlns="http://www.w3.org/2000/svg">
<g clip-path="url(#clip0_3386_1771)">
<path d="M24.0835 4.95306C26.008 7.57269 26.9306 10.795 26.6842 14.0362C26.4377 17.2775 25.0385 20.3232 22.74 22.6217C20.4414 24.9202 17.3957 26.3195 14.1545 26.5659C10.9132 26.8124 7.69092 25.8898 5.07129 23.9652C6.22923 25.5524 7.71712 26.8699 9.43269 27.8273C11.1483 28.7847 13.0508 29.3593 15.0095 29.5115C16.9683 29.6637 18.9367 29.3899 20.7796 28.709C22.6224 28.0281 24.296 26.9562 25.6852 25.567C27.0744 24.1778 28.1463 22.5042 28.8272 20.6613C29.5081 18.8185 29.7819 16.85 29.6297 14.8913C29.4775 12.9326 28.9029 11.03 27.9455 9.31446C26.9881 7.5989 25.6706 6.111 24.0835 4.95306Z" fill="#E5E0FC"/>
<path d="M2.43481 31.3044C3.3953 31.3044 4.17394 30.5257 4.17394 29.5652C4.17394 28.6047 3.3953 27.8261 2.43481 27.8261C1.47431 27.8261 0.695679 28.6047 0.695679 29.5652C0.695679 30.5257 1.47431 31.3044 2.43481 31.3044Z" fill="#AC7FFF"/>
<path d="M16.0626 4.17394C17.0231 4.17394 17.8017 3.3953 17.8017 2.43481C17.8017 1.47431 17.0231 0.695679 16.0626 0.695679C15.1021 0.695679 14.3235 1.47431 14.3235 2.43481C14.3235 3.3953 15.1021 4.17394 16.0626 4.17394Z" fill="#AC7FFF"/>
<path d="M2.43481 17.7391C3.3953 17.7391 4.17394 16.9605 4.17394 16C4.17394 15.0395 3.3953 14.2609 2.43481 14.2609C1.47431 14.2609 0.695679 15.0395 0.695679 16C0.695679 16.9605 1.47431 17.7391 2.43481 17.7391Z" fill="#AC7FFF"/>
<path d="M29.5652 17.7391C30.5257 17.7391 31.3043 16.9605 31.3043 16C31.3043 15.0395 30.5257 14.2609 29.5652 14.2609C28.6047 14.2609 27.826 15.0395 27.826 16C27.826 16.9605 28.6047 17.7391 29.5652 17.7391Z" fill="#AC7FFF"/>
<path d="M30.1148 18.3652C30.6494 18.2414 31.1262 17.9402 31.4676 17.5107C31.809 17.0812 31.9949 16.5487 31.9949 16C31.9949 15.4513 31.809 14.9188 31.4676 14.4893C31.1262 14.0598 30.6494 13.7586 30.1148 13.6348C29.6225 10.7181 28.2351 8.02684 26.1448 5.93403C24.0544 3.84122 21.3648 2.45055 18.4487 1.95478C18.337 1.40438 18.0384 0.909544 17.6035 0.554113C17.1687 0.198682 16.6243 0.0045166 16.0627 0.0045166C15.501 0.0045166 14.9567 0.198682 14.5218 0.554113C14.0869 0.909544 13.7883 1.40438 13.6766 1.95478C10.7681 2.4575 8.08601 3.84691 5.99764 5.93278C3.90927 8.01866 2.51666 10.699 2.01048 13.607C1.44579 13.7036 0.93346 13.9968 0.564099 14.4347C0.194738 14.8727 -0.00785643 15.4271 -0.00785643 16C-0.00785643 16.5729 0.194738 17.1273 0.564099 17.5653C0.93346 18.0032 1.44579 18.2964 2.01048 18.393C2.59663 21.84 4.43166 24.9504 7.16526 27.1304C7.28952 27.2301 7.44422 27.2842 7.60352 27.2835C7.74725 27.2827 7.88719 27.2373 8.00411 27.1537C8.12103 27.0701 8.20918 26.9524 8.25646 26.8167C8.30374 26.6809 8.30781 26.5339 8.26812 26.3958C8.22844 26.2576 8.14694 26.1352 8.03483 26.0452C5.58682 24.0945 3.93655 21.316 3.39483 18.233C3.83245 18.0463 4.20556 17.7351 4.4678 17.3381C4.73003 16.9411 4.86984 16.4758 4.86984 16C4.86984 15.5242 4.73003 15.0589 4.4678 14.6619C4.20556 14.2649 3.83245 13.9537 3.39483 13.767C3.85963 11.1699 5.10892 8.77748 6.97452 6.91187C8.84013 5.04626 11.2325 3.79698 13.8296 3.33218C14.0099 3.78253 14.321 4.16854 14.7227 4.44044C15.1244 4.71234 15.5984 4.85766 16.0835 4.85766C16.5686 4.85766 17.0426 4.71234 17.4443 4.44044C17.8461 4.16854 18.1571 3.78253 18.3374 3.33218C20.929 3.79107 23.3181 5.03226 25.1835 6.88895C27.0489 8.74564 28.3012 11.1288 28.7722 13.7183C28.3054 13.8882 27.9022 14.1977 27.6173 14.6046C27.3324 15.0115 27.1796 15.4963 27.1796 15.993C27.1796 16.4898 27.3324 16.9745 27.6173 17.3815C27.9022 17.7884 28.3054 18.0979 28.7722 18.2678C28.2311 21.2439 26.6624 23.9354 24.3396 25.873C22.0168 27.8106 19.0875 28.8711 16.0627 28.8696H4.75831C4.59121 28.3091 4.22796 27.8275 3.73498 27.5129C3.24199 27.1982 2.65222 27.0715 2.07351 27.1559C1.49479 27.2404 0.965807 27.5303 0.583277 27.9727C0.200747 28.4151 -0.00976563 28.9804 -0.00976562 29.5652C-0.00976562 30.1501 0.200747 30.7154 0.583277 31.1577C0.965807 31.6001 1.49479 31.8901 2.07351 31.9745C2.65222 32.0589 3.24199 31.9322 3.73498 31.6176C4.22796 31.3029 4.59121 30.8213 4.75831 30.2609H16.0627C19.4306 30.2499 22.6867 29.0508 25.2573 26.8747C27.8279 24.6986 29.5481 21.6852 30.1148 18.3652ZM2.43483 17.0435C2.22845 17.0435 2.0267 16.9823 1.8551 16.8676C1.6835 16.753 1.54976 16.59 1.47078 16.3993C1.3918 16.2087 1.37114 15.9988 1.4114 15.7964C1.45166 15.594 1.55104 15.4081 1.69698 15.2622C1.84291 15.1162 2.02884 15.0168 2.23125 14.9766C2.43367 14.9363 2.64348 14.957 2.83415 15.036C3.02482 15.1149 3.18779 15.2487 3.30245 15.4203C3.41711 15.5919 3.47831 15.7936 3.47831 16C3.47831 16.2767 3.36837 16.5422 3.17268 16.7379C2.97699 16.9335 2.71158 17.0435 2.43483 17.0435ZM16.0627 3.47826C15.8563 3.47826 15.6545 3.41706 15.4829 3.3024C15.3113 3.18775 15.1776 3.02478 15.0986 2.83411C15.0196 2.64343 14.999 2.43363 15.0392 2.23121C15.0795 2.0288 15.1789 1.84287 15.3248 1.69693C15.4707 1.551 15.6567 1.45162 15.8591 1.41136C16.0615 1.37109 16.2713 1.39176 16.462 1.47074C16.6526 1.54971 16.8156 1.68346 16.9303 1.85506C17.0449 2.02666 17.1061 2.2284 17.1061 2.43478C17.1061 2.71153 16.9962 2.97694 16.8005 3.17263C16.6048 3.36832 16.3394 3.47826 16.0627 3.47826ZM29.5653 14.9565C29.7716 14.9565 29.9734 15.0177 30.145 15.1324C30.3166 15.247 30.4503 15.41 30.5293 15.6007C30.6083 15.7914 30.629 16.0012 30.5887 16.2036C30.5484 16.406 30.4491 16.5919 30.3031 16.7379C30.1572 16.8838 29.9713 16.9832 29.7688 17.0234C29.5664 17.0637 29.3566 17.043 29.1659 16.964C28.9753 16.8851 28.8123 16.7513 28.6976 16.5797C28.583 16.4081 28.5218 16.2064 28.5218 16C28.5218 15.7233 28.6317 15.4578 28.8274 15.2622C29.0231 15.0665 29.2885 14.9565 29.5653 14.9565ZM2.43483 30.6087C2.22845 30.6087 2.0267 30.5475 1.8551 30.4328C1.6835 30.3182 1.54976 30.1552 1.47078 29.9645C1.3918 29.7739 1.37114 29.5641 1.4114 29.3616C1.45166 29.1592 1.55104 28.9733 1.69698 28.8274C1.84291 28.6814 2.02884 28.5821 2.23125 28.5418C2.43367 28.5015 2.64348 28.5222 2.83415 28.6012C3.02482 28.6801 3.18779 28.8139 3.30245 28.9855C3.41711 29.1571 3.47831 29.3588 3.47831 29.5652C3.47831 29.842 3.36837 30.1074 3.17268 30.3031C2.97699 30.4988 2.71158 30.6087 2.43483 30.6087Z" fill="#341472"/>
<path d="M31.9444 29.3008C31.9113 29.2155 31.8616 29.1374 31.7983 29.0713L30.0592 27.3322C29.9282 27.2012 29.7505 27.1276 29.5653 27.1276C29.38 27.1276 29.2023 27.2012 29.0713 27.3322C28.9403 27.4631 28.8668 27.6408 28.8668 27.8261C28.8668 28.0113 28.9403 28.189 29.0713 28.32L29.6209 28.8695H24.8696C24.6851 28.8695 24.5082 28.9428 24.3777 29.0733C24.2472 29.2038 24.174 29.3807 24.174 29.5652C24.174 29.7497 24.2472 29.9266 24.3777 30.0571C24.5082 30.1876 24.6851 30.2608 24.8696 30.2608H29.6209L29.0713 30.8104C29.0061 30.8751 28.9544 30.952 28.9191 31.0368C28.8838 31.1216 28.8656 31.2125 28.8656 31.3043C28.8656 31.3962 28.8838 31.4871 28.9191 31.5719C28.9544 31.6566 29.0061 31.7336 29.0713 31.7982C29.1363 31.8627 29.2134 31.9137 29.2982 31.9483C29.3829 31.983 29.4737 32.0005 29.5653 32C29.6568 32.0005 29.7476 31.983 29.8323 31.9483C29.9171 31.9137 29.9942 31.8627 30.0592 31.7982L31.7983 30.0591C31.8597 29.9915 31.9092 29.9138 31.9444 29.8295C32.014 29.6602 32.014 29.4702 31.9444 29.3008Z" fill="#341472"/>
<path d="M14.8521 19.4782C15.0346 19.4775 15.2095 19.405 15.3391 19.2765L19.513 15.1026C19.5782 15.0379 19.63 14.961 19.6653 14.8762C19.7006 14.7914 19.7188 14.7005 19.7188 14.6087C19.7188 14.5168 19.7006 14.4259 19.6653 14.3411C19.63 14.2564 19.5782 14.1794 19.513 14.1148C19.3827 13.9852 19.2064 13.9125 19.0226 13.9125C18.8388 13.9125 18.6625 13.9852 18.5321 14.1148L14.8521 17.8087L13.5791 16.5356C13.4488 16.4061 13.2724 16.3333 13.0887 16.3333C12.9049 16.3333 12.7286 16.4061 12.5982 16.5356C12.533 16.6003 12.4813 16.6772 12.446 16.762C12.4106 16.8468 12.3925 16.9377 12.3925 17.0295C12.3925 17.1214 12.4106 17.2123 12.446 17.2971C12.4813 17.3819 12.533 17.4588 12.5982 17.5235L14.3582 19.2835C14.4906 19.4111 14.6682 19.4812 14.8521 19.4782Z" fill="#341472"/>
</g>
<defs>
<clipPath id="clip0_3386_1771">
<rect width="32" height="32" fill="white"/>
</clipPath>
</defs>
</svg>
