<svg width="27" height="26" viewBox="0 0 27 26" fill="none" xmlns="http://www.w3.org/2000/svg">
<g clip-path="url(#clip0_1095_13186)">
<path d="M2.72221 25.1875C3.47009 25.1875 4.07638 24.5812 4.07638 23.8333C4.07638 23.0854 3.47009 22.4792 2.72221 22.4792C1.97432 22.4792 1.36804 23.0854 1.36804 23.8333C1.36804 24.5812 1.97432 25.1875 2.72221 25.1875Z" stroke="#171321" stroke-width="0.541667" stroke-miterlimit="10"/>
<path d="M24.3889 8.9375V20.3125C24.3889 22.1081 22.9345 23.5625 21.1389 23.5625H4.07639" stroke="#171321" stroke-width="0.541667" stroke-miterlimit="10"/>
<path d="M2.7222 22.4792V2.16667H17.618" stroke="#171321" stroke-width="0.541667" stroke-miterlimit="10"/>
<path d="M18.5064 3.64L22.9101 8.04375" stroke="#171321" stroke-width="0.541667" stroke-miterlimit="10"/>
<path d="M7.44012 14.7035L11.8439 19.11" stroke="#171321" stroke-width="0.541667" stroke-miterlimit="10"/>
<path d="M11.8466 19.1073L5.91534 20.6348L7.44014 14.7035L21.7618 0.384583L26.1656 4.78833L11.8466 19.1073Z" stroke="#171321" stroke-width="0.541667" stroke-miterlimit="10"/>
<path d="M6.48409 18.7254L5.91534 20.6348L7.82472 20.066L6.48409 18.7254Z" fill="#171321"/>
</g>
<defs>
<clipPath id="clip0_1095_13186">
<rect width="26" height="26" fill="white" transform="translate(0.555542)"/>
</clipPath>
</defs>
</svg>
