<svg width="24" height="24" viewBox="0 0 24 24" fill="none" xmlns="http://www.w3.org/2000/svg">
<g clip-path="url(#clip0_346_359)">
<path d="M16.32 9.68391L15.2304 8.59431C15.1704 8.53379 15.099 8.48576 15.0203 8.45298C14.9416 8.4202 14.8573 8.40332 14.772 8.40332C14.6868 8.40332 14.6024 8.4202 14.5237 8.45298C14.4451 8.48576 14.3736 8.53379 14.3136 8.59431L10.9704 11.9279L9.69843 10.6535C9.57658 10.5325 9.41179 10.4645 9.24003 10.4645C9.06826 10.4645 8.90348 10.5325 8.78163 10.6535L7.69203 11.7455C7.57112 11.867 7.50323 12.0313 7.50323 12.2027C7.50323 12.3741 7.57112 12.5385 7.69203 12.6599L10.596 15.5639C10.6954 15.663 10.8301 15.7186 10.9704 15.7186C11.1108 15.7186 11.2454 15.663 11.3448 15.5639L16.32 10.5983C16.3805 10.5385 16.4285 10.4673 16.4612 10.3888C16.494 10.3103 16.5108 10.2261 16.5108 10.1411C16.5108 10.0561 16.494 9.97188 16.4612 9.89341C16.4285 9.81493 16.3805 9.74372 16.32 9.68391Z" fill="#FC6D26"/>
<path d="M12 24.0001C11.9451 23.9998 11.8907 23.99 11.8392 23.9713C8.76237 22.8745 4.41837 19.7449 3.10317 17.0113C1.87677 14.4577 1.91997 12.3265 1.97757 9.1009C2.00397 7.6609 2.03517 6.0457 1.97757 4.0345C1.97369 3.90758 2.02025 3.7843 2.10706 3.69163C2.19388 3.59897 2.31387 3.54448 2.44077 3.5401C2.50381 3.53785 2.56668 3.54806 2.62578 3.57013C2.68488 3.5922 2.73905 3.6257 2.78519 3.66872C2.83133 3.71174 2.86853 3.76343 2.89468 3.82084C2.92083 3.87825 2.9354 3.94025 2.93757 4.0033C3.00237 6.0385 2.97117 7.6753 2.93757 9.1177C2.87757 12.3169 2.83917 14.2465 3.96957 16.5937C5.04717 18.8353 8.95197 21.9217 12.1608 23.0737C12.2636 23.1142 12.3493 23.1889 12.4034 23.2852C12.4575 23.3815 12.4768 23.4936 12.4579 23.6024C12.439 23.7113 12.3831 23.8103 12.2997 23.8827C12.2163 23.9552 12.1104 23.9966 12 24.0001Z" fill="#171321"/>
<path d="M12 24.0001C11.8873 23.9994 11.7785 23.9591 11.6926 23.8863C11.6067 23.8135 11.5491 23.7128 11.5299 23.6018C11.5107 23.4908 11.5312 23.3766 11.5878 23.2792C11.6443 23.1818 11.7333 23.1073 11.8392 23.0689C15.048 21.9217 18.96 18.8353 20.0304 16.5937C21.1608 14.2465 21.12 12.3169 21.0624 9.12011C21.0384 7.81211 21.0096 6.34571 21.0624 4.56011C19.3961 4.69011 17.7216 4.45414 16.1561 3.86875C14.5906 3.28336 13.1721 2.36271 12 1.17131C9.88492 3.30388 7.02293 4.52958 4.01997 4.58891C3.89267 4.59178 3.76944 4.54395 3.6774 4.45596C3.58536 4.36797 3.53204 4.24702 3.52917 4.11971C3.52631 3.99241 3.57413 3.86918 3.66213 3.77714C3.75012 3.68509 3.87107 3.63178 3.99837 3.62891C5.44078 3.59903 6.86198 3.27571 8.17535 2.67864C9.48872 2.08158 10.6667 1.2233 11.6376 0.156112C11.6847 0.10851 11.7407 0.0707205 11.8025 0.0449297C11.8643 0.019139 11.9306 0.00585937 11.9976 0.00585938C12.0645 0.00585937 12.1308 0.019139 12.1926 0.0449297C12.2544 0.0707205 12.3105 0.10851 12.3576 0.156112C13.4958 1.40944 14.918 2.3715 16.5049 2.96157C18.0918 3.55164 19.797 3.7525 21.4776 3.54731C21.5474 3.53452 21.6193 3.53739 21.6879 3.55571C21.7565 3.57403 21.8202 3.60735 21.8744 3.65327C21.9286 3.69919 21.9719 3.75655 22.0012 3.82124C22.0305 3.88592 22.0451 3.9563 22.044 4.02731C21.9792 6.03851 22.0104 7.66091 22.044 9.09371C22.1064 12.3193 22.1448 14.4505 20.9184 17.0137C19.6032 19.7497 15.2592 22.8793 12.1824 23.9737C12.1239 23.9942 12.0619 24.0032 12 24.0001Z" fill="#171321"/>
<path d="M10.9704 15.9888C10.7712 15.989 10.5738 15.9499 10.3898 15.8737C10.2057 15.7975 10.0384 15.6858 9.89759 15.5448L7.35359 13.0008C7.24873 12.8961 7.16555 12.7717 7.1088 12.6347C7.05204 12.4978 7.02283 12.3511 7.02283 12.2028C7.02283 12.0546 7.05204 11.9078 7.1088 11.7709C7.16555 11.634 7.24873 11.5096 7.35359 11.4048L8.44319 10.32C8.54759 10.215 8.67173 10.1316 8.80848 10.0747C8.94523 10.0178 9.09188 9.98847 9.23999 9.98847C9.38811 9.98847 9.53476 10.0178 9.67151 10.0747C9.80826 10.1316 9.9324 10.215 10.0368 10.32L10.9704 11.2536L13.9632 8.25363C14.175 8.04317 14.4614 7.92505 14.76 7.92505C15.0586 7.92505 15.345 8.04317 15.5568 8.25363L16.6488 9.34323C16.86 9.55511 16.9786 9.84207 16.9786 10.1412C16.9786 10.4404 16.86 10.7273 16.6488 10.9392L12.0432 15.5448C11.9023 15.6857 11.735 15.7974 11.551 15.8735C11.3669 15.9497 11.1696 15.9889 10.9704 15.9888ZM9.23999 10.9488C9.21801 10.9489 9.19626 10.9534 9.17605 10.962C9.15584 10.9707 9.13759 10.9833 9.12239 10.9992L8.03039 12.0888C7.99874 12.1207 7.98097 12.1639 7.98097 12.2088C7.98097 12.2538 7.99874 12.2969 8.03039 12.3288L10.5768 14.8728C10.6815 14.9766 10.823 15.0348 10.9704 15.0348C11.1178 15.0348 11.2593 14.9766 11.364 14.8728L15.9696 10.26C16.0013 10.2281 16.019 10.185 16.019 10.14C16.019 10.0951 16.0013 10.0519 15.9696 10.02L14.88 8.93283C14.8642 8.91719 14.8455 8.90489 14.8249 8.89664C14.8043 8.88839 14.7822 8.88438 14.76 8.88483C14.7382 8.88443 14.7165 8.88847 14.6963 8.89673C14.676 8.90498 14.6577 8.91726 14.6424 8.93283L11.3088 12.2664C11.217 12.3532 11.0955 12.4015 10.9692 12.4015C10.8429 12.4015 10.7214 12.3532 10.6296 12.2664L9.35999 10.9944C9.34443 10.9784 9.32578 10.9656 9.30515 10.9569C9.28453 10.9483 9.26236 10.9439 9.23999 10.944V10.9488Z" fill="#171321"/>
</g>
<defs>
<clipPath id="clip0_346_359">
<rect width="24" height="24" fill="white"/>
</clipPath>
</defs>
</svg>
